{
	"info": {
		"_postman_id": "cdfab834-6242-4ef2-b5de-02c147702231",
		"name": "Cidenet",
		"schema": "https://schema.getpostman.com/json/collection/v2.1.0/collection.json"
	},
	"item": [
		{
			"name": "Listas",
			"item": [
				{
					"name": "Areas",
					"request": {
						"method": "GET",
						"header": [],
						"url": {
							"raw": "http://127.0.0.1:8180/gestion/api/v1/listas/areas",
							"protocol": "http",
							"host": [
								"127",
								"0",
								"0",
								"1"
							],
							"port": "8180",
							"path": [
								"gestion",
								"api",
								"v1",
								"listas",
								"areas"
							]
						}
					},
					"response": []
				},
				{
					"name": "Tipo Identificacion",
					"request": {
						"method": "GET",
						"header": [],
						"url": {
							"raw": "http://127.0.0.1:8180/gestion/api/v1/listas/tipo_identificacion",
							"protocol": "http",
							"host": [
								"127",
								"0",
								"0",
								"1"
							],
							"port": "8180",
							"path": [
								"gestion",
								"api",
								"v1",
								"listas",
								"tipo_identificacion"
							]
						}
					},
					"response": []
				},
				{
					"name": "Empleados",
					"request": {
						"method": "GET",
						"header": [],
						"url": {
							"raw": "http://127.0.0.1:8180/gestion/api/v1/listas/empleados",
							"protocol": "http",
							"host": [
								"127",
								"0",
								"0",
								"1"
							],
							"port": "8180",
							"path": [
								"gestion",
								"api",
								"v1",
								"listas",
								"empleados"
							]
						}
					},
					"response": []
				},
				{
					"name": "Pais",
					"request": {
						"method": "GET",
						"header": [],
						"url": {
							"raw": "http://127.0.0.1:8180/gestion/api/v1/listas/pais",
							"protocol": "http",
							"host": [
								"127",
								"0",
								"0",
								"1"
							],
							"port": "8180",
							"path": [
								"gestion",
								"api",
								"v1",
								"listas",
								"pais"
							]
						}
					},
					"response": []
				}
			]
		},
		{
			"name": "Consultar",
			"item": [
				{
					"name": "Empleado Por Id",
					"request": {
						"method": "GET",
						"header": [],
						"url": {
							"raw": "http://127.0.0.1:8180/gestion/api/v1/consulta/por_id/:id",
							"protocol": "http",
							"host": [
								"127",
								"0",
								"0",
								"1"
							],
							"port": "8180",
							"path": [
								"gestion",
								"api",
								"v1",
								"consulta",
								"por_id",
								":id"
							],
							"variable": [
								{
									"key": "id",
									"value": "5f9e081b-e0e8-42af-9476-2498977f718e"
								}
							]
						}
					},
					"response": []
				}
			]
		},
		{
			"name": "CRUD",
			"item": [
				{
					"name": "Registrar",
					"request": {
						"method": "POST",
						"header": [],
						"body": {
							"mode": "raw",
							"raw": "{\n      \"secuencia\": 0,\n      \"primer_apellido\": \"de la Acosta\",\n      \"segundo_apellido\": \"Oscar\",\n      \"primer_nombre\": \"Manuel\",\n\t\t\t\"otros_nombre\": \"n n\",\n      \"pais_empleo\": {\n        \"id\": \"dca4aacd-27d4-4126-a03d-b0ecf2e0dcde\",\n\t\t\t\t\"dominio\": \"cidenet.com\"\n      },\n      \"tipo_identificacion\": {\n        \"id\": \"018b76d8-29b2-49dd-940d-5c0b581b566e\"\n      },\n      \"numero_identificacion\": \"13489\",\n      \"fecha_ingreso\": \"20/11/2021\",\n      \"area\": {\n        \"id\": \"d3e06f67-4cc2-4297-bef2-9d54c9be81aa\"\n      }\n}\n",
							"options": {
								"raw": {
									"language": "json"
								}
							}
						},
						"url": {
							"raw": "http://127.0.0.1:8180/gestion/api/v1/registro/nuevo",
							"protocol": "http",
							"host": [
								"127",
								"0",
								"0",
								"1"
							],
							"port": "8180",
							"path": [
								"gestion",
								"api",
								"v1",
								"registro",
								"nuevo"
							]
						}
					},
					"response": []
				},
				{
					"name": "Borrar",
					"request": {
						"method": "DELETE",
						"header": [],
						"url": {
							"raw": "http://127.0.0.1:8180/gestion/api/v1/registro/borrar/:id",
							"protocol": "http",
							"host": [
								"127",
								"0",
								"0",
								"1"
							],
							"port": "8180",
							"path": [
								"gestion",
								"api",
								"v1",
								"registro",
								"borrar",
								":id"
							],
							"variable": [
								{
									"key": "id",
									"value": "43bf4282-e8c4-43b1-89ef-a2becaf29106"
								}
							]
						}
					},
					"response": []
				},
				{
					"name": "New Request",
					"request": {
						"method": "PUT",
						"header": [],
						"body": {
							"mode": "raw",
							"raw": "{\n      \"primer_apellido\": \"Acosta\",\n      \"segundo_apellido\": \"Oscar\",\n      \"primer_nombre\": \"Manuel\",\n      \"otros_nombre\": \"nn\",\n      \"pais_empleo\": {\n        \"id\": \"dca4aacd-27d4-4126-a03d-b0ecf2e0dcde\",\n\t\t\t\t\"dominio\": \"cidenet.com.co\"\n      },\n      \"tipo_identificacion\": {\n        \"id\": \"018b76d8-29b2-49dd-940d-5c0b581b566e\"\n      },\n      \"numero_identificacion\": \"123489\",\n      \"correo\": \"manuel.delaacosta.2@cidenet.com\",\n      \"fecha_ingreso\": \"20/11/2021\",\n      \"area\": {\n        \"id\": \"d3e06f67-4cc2-4297-bef2-9d54c9be81aa\"\n      },\n      \"estado\": true\n    }",
							"options": {
								"raw": {
									"language": "json"
								}
							}
						},
						"url": {
							"raw": "http://127.0.0.1:8180/gestion/api/v1/registro/editar/:id",
							"protocol": "http",
							"host": [
								"127",
								"0",
								"0",
								"1"
							],
							"port": "8180",
							"path": [
								"gestion",
								"api",
								"v1",
								"registro",
								"editar",
								":id"
							],
							"variable": [
								{
									"key": "id",
									"value": "5f9e081b-e0e8-42af-9476-2498977f718e"
								}
							]
						}
					},
					"response": []
				}
			]
		}
	]
}